Lesson 9 – DS 201
…
Thus, our point estimate is 0.52. Note that this value was obtained using functions from the infer package.

We can use bootstrapping to estimate the uncertainty in our point estimate. In order to do this, we will create bootstrap resamples using the function bootstraps from the rsample package.

coin_boots <- bootstraps(coin_toss_df, times = 1000)

coin_boots

# Bootstrap sampling 
# A tibble: 1,000 × 2
   splits           id           
   <list>           <chr>        
 1 <split [100/37]> Bootstrap0001
 2 <split [100/37]> Bootstrap0002
 3 <split [100/37]> Bootstrap0003
 4 <split [100/37]> Bootstrap0004
 5 <split [100/33]> Bootstrap0005
 6 <split [100/37]> Bootstrap0006
 7 <split [100/33]> Bootstrap0007
 8 <split [100/37]> Bootstrap0008
 9 <split [100/36]> Bootstrap0009
10 <split [100/38]> Bootstrap0010
# ℹ 990 more rows

Note that this results in a data frame that stores the bootstrap resamples in a list column named splits. In order to extract the data from a split object, we use the function analysis.

coin_boots$splits[[1]] %>% 
  analysis()

# A tibble: 100 × 2
   coin_toss heads_tails
       <int> <chr>      
 1         1 heads      
 2         0 tails      
 3         1 heads      
 4         1 heads      
 5         1 heads      
 6         1 heads      
 7         0 tails      
 8         0 tails      
 9         0 tails      
10         1 heads      
# ℹ 90 more rows
…
