DS 201 - Lesson 3
…
The subsequent arguments typically describe which columns to operate on, using the variable names (without quotes).

The output is always a new data frame.

Now we will give examples of the typical use for the common dplyr functions:

Selecting Columns

The select function extracts specified columns from a data frame:

gapminder %>%
  select(country,year,lifeExp)

# A tibble: 1,704 × 3
   country      year lifeExp
   <fct>       <int>   <dbl>
 1 Afghanistan  1952    28.8
 2 Afghanistan  1957    30.3
 3 Afghanistan  1962    32.0
 4 Afghanistan  1967    34.0
 5 Afghanistan  1972    36.1
 6 Afghanistan  1977    38.4
 7 Afghanistan  1982    39.9
 8 Afghanistan  1987    40.8
 9 Afghanistan  1992    41.7
10 Afghanistan  1997    41.8
# ℹ 1,694 more rows

You can also specify which columns you don’t want:

gapminder %>%
  select(-continent)

# A tibble: 1,704 × 5
   country      year lifeExp      pop gdpPercap
   <fct>       <int>   <dbl>    <int>     <dbl>
 1 Afghanistan  1952    28.8  8425333      779.
 2 Afghanistan  1957    30.3  9240934      821.
 3 Afghanistan  1962    32.0 10267083      853.
 4 Afghanistan  1967    34.0 11537966      836.
 5 Afghanistan  1972    36.1 13079460      740.
 6 Afghanistan  1977    38.4 14880372      786.
 7 Afghanistan  1982    39.9 12881816      978.
 8 Afghanistan  1987    40.8 13867957      852.
 9 Afghanistan  1992    41.7 16317921      649.
10 Afghanistan  1997    41.8 22227415      635.
# ℹ 1,694 more rows
…
Notice that to specify equality for a condition in filter one must use the double equals ==.

Here are some other variations using filter:

gapminder %>%
  filter(country == "Spain" | country == "Portugal")

# A tibble: 24 × 6
   country  continent  year lifeExp      pop gdpPercap
   <fct>    <fct>     <int>   <dbl>    <int>     <dbl>
 1 Portugal Europe     1952    59.8  8526050     3068.
 2 Portugal Europe     1957    61.5  8817650     3775.
 3 Portugal Europe     1962    64.4  9019800     4728.
 4 Portugal Europe     1967    66.6  9103000     6362.
 5 Portugal Europe     1972    69.3  8970450     9022.
 6 Portugal Europe     1977    70.4  9662600    10172.
 7 Portugal Europe     1982    72.8  9859650    11754.
 8 Portugal Europe     1987    74.1  9915289    13039.
 9 Portugal Europe     1992    74.9  9927680    16207.
10 Portugal Europe     1997    76.0 10156415    17641.
# ℹ 14 more rows

gapminder %>%
  filter(year >= 1979)

# A tibble: 852 × 6
   country     continent  year lifeExp      pop gdpPercap
   <fct>       <fct>     <int>   <dbl>    <int>     <dbl>
 1 Afghanistan Asia       1982    39.9 12881816      978.
 2 Afghanistan Asia       1987    40.8 13867957      852.
 3 Afghanistan Asia       1992    41.7 16317921      649.
 4 Afghanistan Asia       1997    41.8 22227415      635.
 5 Afghanistan Asia       2002    42.1 25268405      727.
 6 Afghanistan Asia       2007    43.8 31889923      975.
 7 Albania     Europe     1982    70.4  2780097     3631.
 8 Albania     Europe     1987    72    3075321     3739.
 9 Albania     Europe     1992    71.6  3326498     2497.
10 Albania     Europe     1997    73.0  3428038     3193.
# ℹ 842 more rows
…
Exercise: Use filter to select those observations in the flights data that had a departure from JFK airport. Use filter to select those observations in the flights data that had a departure from JFK airport and the airline (carrier) is United Airlines (UA). Use filter to extract those observations where there was a departure delay that was an hour or more.

Grouping

The group_by function allows us to group observations in a data frame by one or more grouping variables. The syntax for group_by is:

gapminder %>%
  group_by(year)

# A tibble: 1,704 × 6
# Groups:   year [12]
   country     continent  year lifeExp      pop gdpPercap
   <fct>       <fct>     <int>   <dbl>    <int>     <dbl>
 1 Afghanistan Asia       1952    28.8  8425333      779.
 2 Afghanistan Asia       1957    30.3  9240934      821.
 3 Afghanistan Asia       1962    32.0 10267083      853.
 4 Afghanistan Asia       1967    34.0 11537966      836.
 5 Afghanistan Asia       1972    36.1 13079460      740.
 6 Afghanistan Asia       1977    38.4 14880372      786.
 7 Afghanistan Asia       1982    39.9 12881816      978.
 8 Afghanistan Asia       1987    40.8 13867957      852.
 9 Afghanistan Asia       1992    41.7 16317921      649.
10 Afghanistan Asia       1997    41.8 22227415      635.
# ℹ 1,694 more rows

or for more than one variable:

gapminder %>%
  group_by(country,year)

# A tibble: 1,704 × 6
# Groups:   country, year [1,704]
   country     continent  year lifeExp      pop gdpPercap
   <fct>       <fct>     <int>   <dbl>    <int>     <dbl>
 1 Afghanistan Asia       1952    28.8  8425333      779.
 2 Afghanistan Asia       1957    30.3  9240934      821.
 3 Afghanistan Asia       1962    32.0 10267083      853.
 4 Afghanistan Asia       1967    34.0 11537966      836.
 5 Afghanistan Asia       1972    36.1 13079460      740.
 6 Afghanistan Asia       1977    38.4 14880372      786.
 7 Afghanistan Asia       1982    39.9 12881816      978.
 8 Afghanistan Asia       1987    40.8 13867957      852.
 9 Afghanistan Asia       1992    41.7 16317921      649.
10 Afghanistan Asia       1997    41.8 22227415      635.
# ℹ 1,694 more rows
…
Exercise: Use group_by and summarise to compute the average departure delay by carrier. Use group_by and summarise to find the number of times each airport has had departure delays of an hour or more, use arrange to place the airports with the most departure delays at the top.

We can group by more than one variable:

gapminder %>%
  group_by(year,continent) %>%
  summarise(continent_count = n())

`summarise()` has grouped output by 'year'. You can override using the
`.groups` argument.

# A tibble: 60 × 3
# Groups:   year [12]
    year continent continent_count
   <int> <fct>               <int>
 1  1952 Africa                 52
 2  1952 Americas               25
 3  1952 Asia                   33
 4  1952 Europe                 30
 5  1952 Oceania                 2
 6  1957 Africa                 52
 7  1957 Americas               25
 8  1957 Asia                   33
 9  1957 Europe                 30
10  1957 Oceania                 2
# ℹ 50 more rows

and also summarise more than one variable after grouping.

gapminder %>%
  group_by(year,continent) %>%
  summarise(continent_count = n(),
            mean_lifeExp = mean(lifeExp))

`summarise()` has grouped output by 'year'. You can override using the
`.groups` argument.

# A tibble: 60 × 4
# Groups:   year [12]
    year continent continent_count mean_lifeExp
   <int> <fct>               <int>        <dbl>
 1  1952 Africa                 52         39.1
 2  1952 Americas               25         53.3
 3  1952 Asia                   33         46.3
 4  1952 Europe                 30         64.4
 5  1952 Oceania                 2         69.3
 6  1957 Africa                 52         41.3
 7  1957 Americas               25         56.0
 8  1957 Asia                   33         49.3
 9  1957 Europe                 30         66.7
10  1957 Oceania                 2         70.3
# ℹ 50 more rows
…
Figure 2: The following three rules make a dataset tidy: variables are columns, observations are rows, and values are cells. Illustration credit: https://github.com/hadley/r4ds/blob/main/images/tidy-1.png

Often, getting data into tidy format requires reshaping the data. But there maybe reasons to reshape the data from tidy format to another format. The pivot_longer and pivot_wider functions facilitate these types of reshaping.

gapminder %>%
  select(country,year,lifeExp) %>%
  pivot_wider(names_from = "year",values_from = lifeExp)

# A tibble: 142 × 13
   country `1952` `1957` `1962` `1967` `1972` `1977` `1982` `1987` `1992` `1997`
   <fct>    <dbl>  <dbl>  <dbl>  <dbl>  <dbl>  <dbl>  <dbl>  <dbl>  <dbl>  <dbl>
 1 Afghan…   28.8   30.3   32.0   34.0   36.1   38.4   39.9   40.8   41.7   41.8
 2 Albania   55.2   59.3   64.8   66.2   67.7   68.9   70.4   72     71.6   73.0
 3 Algeria   43.1   45.7   48.3   51.4   54.5   58.0   61.4   65.8   67.7   69.2
 4 Angola    30.0   32.0   34     36.0   37.9   39.5   39.9   39.9   40.6   41.0
 5 Argent…   62.5   64.4   65.1   65.6   67.1   68.5   69.9   70.8   71.9   73.3
 6 Austra…   69.1   70.3   70.9   71.1   71.9   73.5   74.7   76.3   77.6   78.8
 7 Austria   66.8   67.5   69.5   70.1   70.6   72.2   73.2   74.9   76.0   77.5
 8 Bahrain   50.9   53.8   56.9   59.9   63.3   65.6   69.1   70.8   72.6   73.9
 9 Bangla…   37.5   39.3   41.2   43.5   45.3   46.9   50.0   52.8   56.0   59.4
10 Belgium   68     69.2   70.2   70.9   71.4   72.8   73.9   75.4   76.5   77.5
# ℹ 132 more rows
# ℹ 2 more variables: `2002` <dbl>, `2007` <dbl>
…
